[
    {"id": 1, "name":"Sydney","country":"AUS"},
    {"id": 2, "name":"Las Venturus","country":"US"},
    {"id": 3, "name":"Los Santos","country":"US"},
    {"id": 4, "name":"Canberra","country":"AUS"},
    {"id": 5, "name":"Perth","country":"AUS"},
    {"id": 6, "name":"DC","country":"US"}
]
